<?xml version="1.0" encoding="utf-8"?>
<!-- Generator: Adobe Illustrator 19.0.0, SVG Export Plug-In . SVG Version: 6.00 Build 0)  -->
<svg version="1.1" id="Warstwa_1" xmlns="http://www.w3.org/2000/svg" xmlns:xlink="http://www.w3.org/1999/xlink" x="0px" y="0px"
	 width="566.9px" height="170.1px" viewBox="0 0 566.9 170.1" enable-background="new 0 0 566.9 170.1" xml:space="preserve">
<path fill="#AFCA05" d="M208.9,69.5c1.6-5.1,4.2-9.2,7.9-12.3c5.4-4.7,12-7,19.8-7c8.7,0,15.7,2.8,21.2,8.5
	c5.5,5.7,8.2,13.5,8.2,23.5c0,0.4,0,0.7,0,1.1c-3.7-0.8-7.3-1.7-11-2.5c-0.3-6.8-2-12.1-5.3-15.7c-3.5-4-7.9-6-13.2-6
	c-5.3,0-9.8,2-13.3,6c-1.7,1.9-3,4.3-3.8,7.1L208.9,69.5z M207,83c0-1.9,0.1-3.7,0.2-5.4l10.8,2.7c0,0.9-0.1,1.8-0.1,2.7
	c0,8.1,1.8,14.1,5.3,18.1c3.5,4,7.9,6,13.3,6c5.3,0,9.7-2,13.2-6c2.5-2.9,4.1-6.9,4.8-12c3.6,0.8,7.1,1.6,10.7,2.5
	c-0.6,3.8-1.6,7-3,9.7c-2.4,4.7-6,8.3-10.6,10.8c-4.7,2.6-9.7,3.8-15.2,3.8c-8.8,0-15.9-2.8-21.4-8.5C209.7,101.8,207,93.7,207,83z
	 M154.2,59.3c1.8-2.2,4-4,6.5-5.4c4.6-2.5,9.6-3.8,15-3.8c6.8,0,12.4,1.7,16.8,5.2c3.7,3,6.3,7,7.7,12.1c-3.9-0.9-8.1-1.8-12.7-2.7
	c-0.7-1-1.4-1.8-2.3-2.6c-2.5-2.1-5.5-3.2-9.1-3.2c-3.3,0-6.3,0.7-8.8,2.2C163.1,60.5,158.7,59.9,154.2,59.3z M191.4,91.5l10.5,1.4
	c-1.1,7.2-4.1,12.9-8.8,17c-4.7,4.1-10.5,6.1-17.4,6.1c-8.6,0-15.5-2.8-20.8-8.4c-5.2-5.6-7.9-13.7-7.9-24.2c0-6,0.9-11.3,2.6-16
	c3.7,0.4,7.3,0.9,10.9,1.3c-1.7,3.7-2.5,8.4-2.5,14.4c0,8.5,1.6,14.6,4.9,18.4c3.2,3.8,7.5,5.7,12.7,5.7c4.2,0,7.7-1.3,10.5-3.9
	C188.9,100.7,190.6,96.8,191.4,91.5z M86.9,59.6c0.2-0.2,0.4-0.4,0.6-0.7c5.5-5.8,12.5-8.8,21.2-8.8c7.6,0,14,2.4,19.1,7.1
	C113.7,56.7,99.6,57.3,86.9,59.6z M125.9,94.2l11,1.4c-1.7,6.5-5,11.4-9.6,15c-4.7,3.5-10.7,5.3-18,5.3c-9.2,0-16.5-2.8-21.9-8.5
	c-5.4-5.7-8.1-13.6-8.1-23.8c0-5.4,0.7-10.3,2.2-14.4c4-1,8.2-1.7,12.6-2.3c-1.8,2.8-2.8,6.2-3.1,10.2H126
	c-0.4-5.1-1.7-8.9-3.7-11.5c3.9,0.1,7.8,0.2,11.8,0.5c2.2,4.7,3.2,10.4,3.2,17c0,0.6,0,1.6-0.1,2.9H90.3c0.4,6.9,2.3,12.2,5.9,15.9
	c3.5,3.7,7.9,5.5,13.1,5.5c3.9,0,7.2-1,10-3.1C122.1,102,124.3,98.8,125.9,94.2z"/>
<path fill="#FCE435" d="M552.9,67.1c1.8,4.5,2.7,9.7,2.7,15.8c0,0.6,0,1.6-0.1,2.9H511c5.8-2.3,11.6-4.7,17.5-7.3
	c1.1-0.5,2.2-1,3.3-1.5h12.6c-0.2-2-0.5-3.8-0.9-5.4C546.6,70.1,549.7,68.6,552.9,67.1 M497.6,81.9c0.3-9.8,3-17.5,8.1-23
	c5.5-5.8,12.5-8.8,21.2-8.8c8.4,0,15.3,2.9,20.6,8.6c0.4,0.4,0.7,0.8,1,1.2c-3,1.4-6,2.9-9.1,4.3c-3.3-3.5-7.4-5.3-12.5-5.3
	c-4.9,0-9,1.6-12.4,4.9c-3.3,3.3-5.2,7.7-5.5,13.1h1.4C506.2,78.7,501.9,80.4,497.6,81.9z M544.2,94.2l11,1.4
	c-1.7,6.5-5,11.4-9.6,15c-4.7,3.5-10.7,5.3-18,5.3c-9.2,0-16.5-2.8-21.9-8.5c-4.1-4.3-6.6-9.9-7.6-16.9c3.5-1.2,7.1-2.5,10.6-3.9
	c0.5,6.5,2.4,11.5,5.8,15c3.5,3.7,7.9,5.5,13.1,5.5c3.9,0,7.2-1,10-3.1C540.4,102,542.6,98.8,544.2,94.2z M484.8,94.9v19.6h-10.7V98
	C477.7,97,481.2,96,484.8,94.9z M433.6,97.4V51.6h9.6v8.9c4.6-6.9,11.3-10.4,20-10.4c3.8,0,7.3,0.7,10.5,2c3.2,1.4,5.6,3.2,7.1,5.4
	c1.6,2.2,2.7,4.8,3.3,7.9c0.4,2,0.6,5.4,0.6,10.4v10.4c-3.6,1.1-7.1,2.2-10.7,3.1V76.2c0-4.3-0.4-7.6-1.2-9.7
	c-0.8-2.1-2.3-3.9-4.4-5.1c-2.1-1.3-4.6-1.9-7.4-1.9c-4.6,0-8.5,1.5-11.8,4.3c-3.3,2.9-4.9,8.4-4.9,16.4v15.7
	C440.8,96.4,437.2,96.9,433.6,97.4z M433.6,114.5v-8.8c3.6-0.4,7.1-0.9,10.7-1.5v10.2H433.6z M406.7,99.3V51.6h10.7v47.3
	C413.9,99.1,410.3,99.2,406.7,99.3z M406.7,114.5v-6.9c3.6-0.1,7.2-0.3,10.7-0.5v7.3H406.7z M406.7,39.9V27.6h10.7v12.3H406.7z
	 M390.4,107.8v6.7h-10.7v-7C383.3,107.7,386.9,107.7,390.4,107.8z M339.2,96.2V27.6h10.7v31.2c5-5.8,11.3-8.7,18.9-8.7
	c4.7,0,8.7,0.9,12.1,2.8c3.4,1.8,5.9,4.4,7.4,7.6c1.5,3.2,2.2,7.9,2.2,14.1v24.8c-3.6,0-7.1-0.1-10.7-0.2V74.6
	c0-5.3-1.2-9.2-3.5-11.6c-2.3-2.4-5.6-3.7-9.8-3.7c-3.2,0-6.1,0.8-8.9,2.5c-2.8,1.6-4.8,3.9-5.9,6.7c-1.2,2.8-1.8,6.7-1.8,11.6v17.2
	C346.3,97,342.7,96.6,339.2,96.2z M339.2,114.5v-9.9c3.6,0.4,7.1,0.8,10.7,1.1v8.8H339.2z M313.8,92.7c-0.4-0.4-0.9-0.8-1.5-1.2
	c-1.5-0.9-5.1-2.1-10.9-3.6c-7.8-2-13.2-3.7-16.3-5.1c-3-1.4-5.3-3.4-6.9-6c-1.6-2.5-2.3-5.4-2.3-8.4c0-2.8,0.6-5.4,1.9-7.8
	c1.3-2.4,3-4.4,5.2-6c1.7-1.2,3.9-2.3,6.8-3.1c2.9-0.8,5.9-1.3,9.2-1.3c4.9,0,9.3,0.7,13,2.1c3.7,1.4,6.5,3.3,8.3,5.8
	c1.8,2.4,3,5.7,3.7,9.8l-10.4,1.4c-0.5-3.2-1.9-5.8-4.1-7.6c-2.3-1.8-5.5-2.7-9.6-2.7c-4.9,0-8.4,0.8-10.5,2.4
	c-2.1,1.6-3.2,3.5-3.2,5.7c0,1.4,0.4,2.6,1.3,3.7c0.9,1.2,2.2,2.1,4.1,2.9c1.1,0.4,4.2,1.3,9.4,2.7c7.5,2,12.8,3.7,15.8,5
	c3,1.3,5.3,3.2,7,5.6c1.5,2.1,2.3,4.7,2.5,7.7C322.3,94,318,93.4,313.8,92.7z M274.2,95.7l5.8-0.9c1.7,0.4,3.4,0.7,5.1,1
	c0.8,3.4,2.3,6,4.6,7.9c2.7,2.2,6.5,3.4,11.3,3.4c4.9,0,8.5-1,10.9-3c1.1-0.9,1.9-1.9,2.5-3c3.6,0.6,7.1,1.1,10.6,1.6
	c-0.5,1.1-1,2.2-1.8,3.3c-2.1,3.1-5.1,5.6-9,7.3c-3.9,1.7-8.3,2.6-13.3,2.6c-8.2,0-14.4-1.7-18.7-5.1
	C278.1,107.4,275.4,102.4,274.2,95.7z"/>
<path fill-rule="evenodd" clip-rule="evenodd" fill="#AFCA05" d="M149,47.7c7.2-20.9-5.9-36-43.3-45.7
	C110.2,39.2,125.9,54.5,149,47.7"/>
<path fill-rule="evenodd" clip-rule="evenodd" fill="#AFCA05" d="M72.5,67.9c-14.6-16.6-34.2-12.7-61.1,15
	C45.8,97.3,66.9,91.3,72.5,67.9"/>
<path fill="#FFFFFF" d="M562.2,158.5h-18.4v-32.7h17.6v4.6h-12.2v9.3h11.2v4.6h-11.2v9.7h12.9V158.5z M520.1,130.1v10.6h4.5
	c0.4,0,0.8,0,1.2-0.1c0.4-0.1,0.7-0.1,1.1-0.3c0.4-0.1,0.7-0.3,1-0.5c0.3-0.2,0.6-0.4,0.8-0.7c0.3-0.2,0.5-0.5,0.7-0.8
	c0.2-0.3,0.4-0.6,0.5-1c0.1-0.4,0.2-0.7,0.3-1.1c0.1-0.4,0.1-0.8,0.1-1.2c0-0.8-0.1-1.5-0.4-2.1c-0.2-0.6-0.6-1.1-1.1-1.6
	c-0.5-0.4-1.1-0.8-1.8-1c-0.7-0.2-1.5-0.3-2.5-0.3H520.1z M540,158.5h-6.4l-5.2-8.8c-0.2-0.4-0.5-0.8-0.7-1.1
	c-0.2-0.4-0.5-0.7-0.7-0.9c-0.2-0.3-0.4-0.5-0.7-0.8c-0.2-0.2-0.5-0.4-0.7-0.6c-0.2-0.2-0.5-0.3-0.7-0.5c-0.2-0.1-0.5-0.2-0.8-0.3
	c-0.3-0.1-0.6-0.1-0.9-0.2c-0.3,0-0.6-0.1-1-0.1h-2.2v13.3h-5.4v-32.7h10.7c0.8,0,1.5,0,2.2,0.1c0.7,0.1,1.4,0.2,2,0.4
	c0.6,0.2,1.2,0.4,1.8,0.7c0.6,0.3,1.1,0.6,1.6,1c0.5,0.4,0.9,0.8,1.3,1.2c0.4,0.5,0.7,1,0.9,1.5c0.3,0.6,0.5,1.2,0.6,1.8
	c0.1,0.6,0.2,1.3,0.2,2.1c0,0.6,0,1.1-0.1,1.6c-0.1,0.5-0.2,1-0.4,1.5c-0.2,0.5-0.4,0.9-0.6,1.4c-0.2,0.4-0.5,0.8-0.9,1.2
	c-0.3,0.4-0.7,0.7-1,1c-0.4,0.3-0.8,0.6-1.3,0.9c-0.4,0.3-0.9,0.5-1.4,0.7c-0.5,0.2-1,0.4-1.6,0.5v0.1c0.3,0.2,0.6,0.3,0.8,0.5
	c0.3,0.2,0.5,0.4,0.7,0.6c0.5,0.4,0.9,0.8,1.3,1.3c0.2,0.2,0.4,0.4,0.6,0.7c0.2,0.2,0.4,0.5,0.6,0.8c0.2,0.3,0.4,0.5,0.6,0.9
	c0.2,0.3,0.4,0.7,0.7,1L540,158.5z M499.9,145.7l-4.6-13c-0.1-0.2-0.1-0.5-0.2-0.8c-0.1-0.4-0.1-0.8-0.2-1.2h-0.1
	c-0.1,0.4-0.1,0.8-0.2,1.2c-0.1,0.3-0.2,0.6-0.2,0.9l-4.5,13H499.9z M510.2,158.5h-6l-2.9-8.3h-12.9l-2.9,8.3h-5.9l12.3-32.7h6.1
	L510.2,158.5z M477.1,157.1c-1.2,0.6-2.6,1.1-4.2,1.4c-1.5,0.3-3.2,0.5-5,0.5c-2.4,0-4.5-0.4-6.4-1.1c-1.9-0.7-3.6-1.9-5-3.4
	c-1.4-1.5-2.5-3.2-3.2-5.2c-0.7-2-1.1-4.2-1.1-6.6c0-2.6,0.4-5,1.2-7.1c0.8-2.1,2-4,3.6-5.6c1.6-1.6,3.4-2.8,5.5-3.6
	c2-0.8,4.3-1.2,6.7-1.2c1.6,0,3,0.1,4.4,0.3c1.3,0.2,2.5,0.6,3.5,1v5.4c-2.2-1.3-4.6-2-7.3-2c-1.8,0-3.4,0.3-4.8,0.8
	c-1.4,0.6-2.7,1.4-3.8,2.6c-1.1,1.1-1.9,2.4-2.5,4c-0.5,1.5-0.8,3.2-0.8,5.1c0,1.8,0.3,3.4,0.8,4.9c0.5,1.4,1.3,2.7,2.3,3.7
	c1,1.1,2.2,1.9,3.6,2.4c1.3,0.5,2.9,0.8,4.5,0.8c1.5,0,3-0.2,4.3-0.6c1.3-0.4,2.6-0.9,3.7-1.6V157.1z M417.7,130.1v10.6h4.5
	c0.4,0,0.8,0,1.2-0.1c0.4-0.1,0.7-0.1,1.1-0.3c0.4-0.1,0.7-0.3,1-0.5c0.3-0.2,0.6-0.4,0.8-0.7c0.3-0.2,0.5-0.5,0.7-0.8
	c0.2-0.3,0.4-0.6,0.5-1c0.1-0.4,0.2-0.7,0.3-1.1c0.1-0.4,0.1-0.8,0.1-1.2c0-0.8-0.1-1.5-0.4-2.1c-0.2-0.6-0.6-1.1-1.1-1.6
	c-0.5-0.4-1.1-0.8-1.8-1c-0.7-0.2-1.5-0.3-2.5-0.3H417.7z M437.6,158.5h-6.4l-5.2-8.8c-0.2-0.4-0.5-0.8-0.7-1.1
	c-0.2-0.4-0.5-0.7-0.7-0.9c-0.2-0.3-0.4-0.5-0.7-0.8c-0.2-0.2-0.5-0.4-0.7-0.6c-0.2-0.2-0.5-0.3-0.7-0.5c-0.2-0.1-0.5-0.2-0.8-0.3
	c-0.3-0.1-0.6-0.1-0.9-0.2c-0.3,0-0.6-0.1-1-0.1h-2.2v13.3h-5.4v-32.7h10.7c0.8,0,1.5,0,2.2,0.1c0.7,0.1,1.4,0.2,2,0.4
	c0.6,0.2,1.2,0.4,1.8,0.7c0.6,0.3,1.1,0.6,1.6,1c0.5,0.4,0.9,0.8,1.3,1.2c0.4,0.5,0.7,1,0.9,1.5c0.3,0.6,0.5,1.2,0.6,1.8
	c0.1,0.6,0.2,1.3,0.2,2.1c0,0.6,0,1.1-0.1,1.6c-0.1,0.5-0.2,1-0.4,1.5c-0.2,0.5-0.4,0.9-0.6,1.4c-0.2,0.4-0.5,0.8-0.9,1.2
	c-0.3,0.4-0.7,0.7-1,1c-0.4,0.3-0.8,0.6-1.3,0.9c-0.4,0.3-0.9,0.5-1.4,0.7c-0.5,0.2-1,0.4-1.6,0.5v0.1c0.3,0.2,0.6,0.3,0.8,0.5
	c0.3,0.2,0.5,0.4,0.7,0.6c0.5,0.4,0.9,0.8,1.3,1.3c0.2,0.2,0.4,0.4,0.6,0.7c0.2,0.2,0.4,0.5,0.6,0.8c0.2,0.3,0.4,0.5,0.6,0.9
	c0.2,0.3,0.4,0.7,0.7,1L437.6,158.5z M397.5,145.7l-4.6-13c-0.1-0.2-0.1-0.5-0.2-0.8c-0.1-0.4-0.1-0.8-0.2-1.2h-0.1
	c-0.1,0.4-0.1,0.8-0.2,1.2c-0.1,0.3-0.2,0.6-0.2,0.9l-4.5,13H397.5z M407.9,158.5h-6l-2.9-8.3h-12.9l-2.9,8.3h-5.9l12.3-32.7h6.1
	L407.9,158.5z M374.8,157.1c-1.2,0.6-2.6,1.1-4.2,1.4c-1.5,0.3-3.2,0.5-5,0.5c-2.4,0-4.5-0.4-6.4-1.1c-1.9-0.7-3.6-1.9-5-3.4
	c-1.4-1.5-2.5-3.2-3.2-5.2c-0.7-2-1.1-4.2-1.1-6.6c0-2.6,0.4-5,1.2-7.1c0.8-2.1,2-4,3.6-5.6c1.6-1.6,3.4-2.8,5.5-3.6
	c2-0.8,4.3-1.2,6.7-1.2c1.6,0,3,0.1,4.4,0.3c1.3,0.2,2.5,0.6,3.5,1v5.4c-2.2-1.3-4.6-2-7.3-2c-1.8,0-3.4,0.3-4.8,0.8
	c-1.4,0.6-2.7,1.4-3.8,2.6c-1.1,1.1-1.9,2.4-2.5,4c-0.5,1.5-0.8,3.2-0.8,5.1c0,1.8,0.3,3.4,0.8,4.9c0.5,1.4,1.3,2.7,2.3,3.7
	c1,1.1,2.2,1.9,3.6,2.4c1.3,0.5,2.9,0.8,4.5,0.8c1.5,0,3-0.2,4.3-0.6c1.3-0.4,2.6-0.9,3.7-1.6V157.1z"/>
<path fill="#575656" d="M3116.9-911.7h-76.3v-135.9h73.2v19h-50.7v38.6h46.6v19h-46.6v40.2h53.8V-911.7z M2941.9-1029.4v44.1h18.8
	c1.7,0,3.4-0.1,5-0.4c1.6-0.2,3.1-0.6,4.5-1.2c1.6-0.5,3-1.1,4.2-1.9c1.3-0.8,2.5-1.7,3.5-2.7c1.1-1,2-2.1,2.8-3.3
	c0.8-1.2,1.6-2.6,2.2-4c0.6-1.5,1-3,1.3-4.6c0.3-1.7,0.4-3.3,0.4-5.1c0-3.3-0.5-6.2-1.6-8.8c-1-2.5-2.6-4.7-4.6-6.6
	c-2-1.8-4.5-3.2-7.4-4.1c-2.9-0.9-6.3-1.3-10.2-1.3H2941.9z M3024.6-911.7h-26.4l-21.7-36.5c-1-1.6-1.9-3.2-2.9-4.6
	c-1-1.5-1.9-2.8-2.9-3.9c-0.9-1.2-1.8-2.2-2.7-3.2c-0.9-1-1.9-1.8-2.9-2.6c-1-0.8-2-1.4-3-1.9c-1-0.5-2.1-1-3.2-1.4
	c-1.2-0.3-2.4-0.5-3.7-0.7c-1.3-0.2-2.7-0.3-4.1-0.3h-9.1v55.1h-22.3v-135.9h44.7c3.2,0,6.3,0.2,9.2,0.6c2.9,0.4,5.8,0.9,8.5,1.6
	c2.6,0.8,5.1,1.7,7.5,2.9c2.4,1.2,4.5,2.5,6.5,4.1c2,1.6,3.8,3.3,5.4,5.1c1.6,1.9,2.8,4,3.9,6.3c1.2,2.3,2,4.8,2.5,7.5
	c0.5,2.7,0.8,5.5,0.8,8.6c0,2.3-0.2,4.6-0.5,6.8c-0.3,2.2-0.8,4.3-1.5,6.4c-0.8,1.9-1.7,3.8-2.7,5.6c-1,1.8-2.2,3.5-3.6,5
	c-1.3,1.6-2.7,3-4.3,4.3c-1.6,1.4-3.4,2.6-5.2,3.6c-1.8,1.2-3.8,2.1-5.9,3c-2,0.8-4.2,1.6-6.6,2.3v0.4c1.3,0.7,2.4,1.4,3.5,2.2
	c1.1,0.7,2,1.5,2.9,2.3c1.9,1.7,3.7,3.5,5.2,5.2c0.9,0.9,1.7,1.8,2.5,2.8c0.8,1,1.6,2.1,2.4,3.2c0.9,1.1,1.7,2.3,2.7,3.6
	c0.9,1.3,1.8,2.7,2.8,4.2L3024.6-911.7z M2858.1-964.7l-19-54.2c-0.3-0.9-0.6-2-0.9-3.5c-0.3-1.5-0.6-3.1-0.9-5.1h-0.4
	c-0.3,1.7-0.6,3.3-0.9,4.8c-0.3,1.4-0.6,2.7-1,3.8l-18.6,54.2H2858.1z M2901-911.7h-24.9l-12.2-34.6h-53.4l-11.8,34.6H2774
	l51.1-135.9h25.2L2901-911.7z M2763.5-917.4c-5.1,2.6-10.9,4.6-17.3,6c-6.4,1.3-13.4,2-20.9,2c-9.9,0-18.8-1.6-26.7-4.7
	c-7.9-3.1-14.8-7.8-20.7-14.1c-5.9-6.2-10.4-13.4-13.4-21.5c-3-8.2-4.5-17.3-4.5-27.4c0-10.9,1.7-20.7,5-29.4
	c3.3-8.7,8.3-16.5,15-23.2c6.7-6.7,14.3-11.7,22.7-15.1c8.4-3.4,17.8-5.1,28-5.1c6.6,0,12.6,0.5,18.1,1.4c5.4,1,10.4,2.4,14.7,4.2
	v22.3c-9.1-5.4-19.2-8.2-30.3-8.2c-7.4,0-14.1,1.2-20.1,3.5c-6,2.3-11.3,5.9-15.9,10.6c-4.6,4.7-8,10.1-10.2,16.4
	c-2.2,6.3-3.4,13.4-3.4,21.2c0,7.5,1.1,14.2,3.2,20.2c2.1,6,5.3,11.2,9.6,15.5c4.3,4.5,9.2,7.8,14.8,10c5.6,2.2,11.8,3.4,18.8,3.4
	c6.4,0,12.4-0.8,17.9-2.3c5.6-1.6,10.7-3.8,15.5-6.8V-917.4z M2516.8-1029.4v44.1h18.8c1.7,0,3.4-0.1,5-0.4c1.6-0.2,3.1-0.6,4.5-1.2
	c1.6-0.5,3-1.1,4.2-1.9c1.3-0.8,2.5-1.7,3.5-2.7c1.1-1,2-2.1,2.8-3.3c0.8-1.2,1.6-2.6,2.2-4c0.6-1.5,1-3,1.3-4.6
	c0.3-1.7,0.4-3.3,0.4-5.1c0-3.3-0.5-6.2-1.6-8.8c-1-2.5-2.6-4.7-4.6-6.6c-2-1.8-4.5-3.2-7.4-4.1c-2.9-0.9-6.3-1.3-10.2-1.3H2516.8z
	 M2599.5-911.7h-26.4l-21.7-36.5c-1-1.6-1.9-3.2-2.9-4.6c-1-1.5-1.9-2.8-2.9-3.9c-0.9-1.2-1.8-2.2-2.7-3.2c-0.9-1-1.9-1.8-2.9-2.6
	c-1-0.8-2-1.4-3-1.9c-1-0.5-2.1-1-3.2-1.4c-1.2-0.3-2.4-0.5-3.7-0.7c-1.3-0.2-2.7-0.3-4.1-0.3h-9.1v55.1h-22.3v-135.9h44.7
	c3.2,0,6.3,0.2,9.2,0.6c2.9,0.4,5.8,0.9,8.5,1.6c2.6,0.8,5.1,1.7,7.5,2.9c2.4,1.2,4.5,2.5,6.5,4.1c2,1.6,3.8,3.3,5.4,5.1
	c1.6,1.9,2.8,4,3.9,6.3c1.2,2.3,2,4.8,2.5,7.5c0.5,2.7,0.8,5.5,0.8,8.6c0,2.3-0.2,4.6-0.5,6.8c-0.3,2.2-0.8,4.3-1.5,6.4
	c-0.8,1.9-1.7,3.8-2.7,5.6c-1,1.8-2.2,3.5-3.6,5c-1.3,1.6-2.7,3-4.3,4.3c-1.6,1.4-3.4,2.6-5.2,3.6c-1.8,1.2-3.8,2.1-5.9,3
	c-2,0.8-4.2,1.6-6.6,2.3v0.4c1.3,0.7,2.4,1.4,3.5,2.2c1.1,0.7,2,1.5,2.9,2.3c1.9,1.7,3.7,3.5,5.2,5.2c0.9,0.9,1.7,1.8,2.5,2.8
	c0.8,1,1.6,2.1,2.4,3.2c0.9,1.1,1.7,2.3,2.7,3.6c0.9,1.3,1.8,2.7,2.8,4.2L2599.5-911.7z M2432.9-964.7l-19-54.2
	c-0.3-0.9-0.6-2-0.9-3.5c-0.3-1.5-0.6-3.1-0.9-5.1h-0.4c-0.3,1.7-0.6,3.3-0.9,4.8c-0.3,1.4-0.6,2.7-1,3.8l-18.6,54.2H2432.9z
	 M2475.8-911.7h-24.9l-12.2-34.6h-53.4l-11.8,34.6h-24.7l51.1-135.9h25.2L2475.8-911.7z M2338.3-917.4c-5.1,2.6-10.9,4.6-17.3,6
	c-6.4,1.3-13.4,2-20.9,2c-9.9,0-18.8-1.6-26.7-4.7c-7.9-3.1-14.8-7.8-20.7-14.1c-5.9-6.2-10.4-13.4-13.4-21.5
	c-3-8.2-4.5-17.3-4.5-27.4c0-10.9,1.7-20.7,5-29.4c3.3-8.7,8.3-16.5,15-23.2c6.7-6.7,14.3-11.7,22.7-15.1c8.4-3.4,17.8-5.1,28-5.1
	c6.6,0,12.6,0.5,18.1,1.4c5.4,1,10.4,2.4,14.7,4.2v22.3c-9.1-5.4-19.2-8.2-30.3-8.2c-7.4,0-14.1,1.2-20.1,3.5
	c-6,2.3-11.3,5.9-15.9,10.6c-4.6,4.7-8,10.1-10.2,16.4c-2.2,6.3-3.4,13.4-3.4,21.2c0,7.5,1.1,14.2,3.2,20.2c2.1,6,5.3,11.2,9.6,15.5
	c4.3,4.5,9.2,7.8,14.8,10c5.6,2.2,11.8,3.4,18.8,3.4c6.4,0,12.4-0.8,17.9-2.3c5.6-1.6,10.7-3.8,15.5-6.8V-917.4z"/>
<path fill="none" stroke="#000000" stroke-width="0.5669" stroke-miterlimit="22.9256" d="M611.8,839.5h-76.3V703.6h73.2v19H558
	v38.6h46.6v19H558v40.2h53.8V839.5z M436.9,721.9V766h18.8c1.7,0,3.4-0.1,5-0.4c1.6-0.2,3.1-0.6,4.5-1.2c1.6-0.5,3-1.1,4.2-1.9
	c1.3-0.8,2.5-1.7,3.5-2.7c1.1-1,2-2.1,2.8-3.3c0.8-1.2,1.6-2.6,2.2-4c0.6-1.5,1-3,1.3-4.6c0.3-1.7,0.4-3.3,0.4-5.1
	c0-3.3-0.5-6.2-1.6-8.8c-1-2.5-2.6-4.7-4.6-6.6c-2-1.8-4.5-3.2-7.4-4.1c-2.9-0.9-6.3-1.3-10.2-1.3H436.9z M519.6,839.5h-26.4
	L471.4,803c-1-1.6-1.9-3.2-2.9-4.6c-1-1.5-1.9-2.8-2.9-3.9c-0.9-1.2-1.8-2.2-2.7-3.2c-0.9-1-1.9-1.8-2.9-2.6c-1-0.8-2-1.4-3-1.9
	c-1-0.5-2.1-1-3.2-1.4c-1.2-0.3-2.4-0.5-3.7-0.7c-1.3-0.2-2.7-0.3-4.1-0.3h-9.1v55.1h-22.3V703.6h44.7c3.2,0,6.3,0.2,9.2,0.6
	c2.9,0.4,5.8,0.9,8.5,1.6c2.6,0.8,5.1,1.7,7.5,2.9c2.4,1.2,4.5,2.5,6.5,4.1c2,1.6,3.8,3.3,5.4,5.1c1.6,1.9,2.8,4,3.9,6.3
	c1.2,2.3,2,4.8,2.5,7.5c0.5,2.7,0.8,5.5,0.8,8.6c0,2.3-0.2,4.6-0.5,6.8c-0.3,2.2-0.8,4.3-1.5,6.4c-0.8,1.9-1.7,3.8-2.7,5.6
	c-1,1.8-2.2,3.5-3.6,5c-1.3,1.6-2.7,3-4.3,4.3c-1.6,1.4-3.4,2.6-5.2,3.6c-1.8,1.2-3.8,2.1-5.9,3c-2,0.8-4.2,1.6-6.6,2.3v0.4
	c1.3,0.7,2.4,1.4,3.5,2.2c1.1,0.7,2,1.5,2.9,2.3c1.9,1.7,3.7,3.5,5.2,5.2c0.9,0.9,1.7,1.8,2.5,2.8c0.8,1,1.6,2.1,2.4,3.2
	c0.9,1.1,1.7,2.3,2.7,3.6c0.9,1.3,1.8,2.7,2.8,4.2L519.6,839.5z M353,786.5l-19-54.2c-0.3-0.9-0.6-2-0.9-3.5
	c-0.3-1.5-0.6-3.1-0.9-5.1h-0.4c-0.3,1.7-0.6,3.3-0.9,4.8c-0.3,1.4-0.6,2.7-1,3.8l-18.6,54.2H353z M395.9,839.5h-24.9L358.8,805
	h-53.4l-11.8,34.6h-24.7L320,703.6h25.2L395.9,839.5z M258.4,833.9c-5.1,2.6-10.9,4.6-17.3,6c-6.4,1.3-13.4,2-20.9,2
	c-9.9,0-18.8-1.6-26.7-4.7c-7.9-3.1-14.8-7.8-20.7-14.1c-5.9-6.2-10.4-13.4-13.4-21.5c-3-8.2-4.5-17.3-4.5-27.4
	c0-10.9,1.7-20.7,5-29.4c3.3-8.7,8.3-16.5,15-23.2c6.7-6.7,14.3-11.7,22.7-15.1c8.4-3.4,17.8-5.1,28-5.1c6.6,0,12.6,0.5,18.1,1.4
	c5.4,1,10.4,2.4,14.7,4.2v22.3c-9.1-5.4-19.2-8.2-30.3-8.2c-7.4,0-14.1,1.2-20.1,3.5c-6,2.3-11.3,5.9-15.9,10.6
	c-4.6,4.7-8,10.1-10.2,16.4c-2.2,6.3-3.4,13.4-3.4,21.2c0,7.5,1.1,14.2,3.2,20.2c2.1,6,5.3,11.2,9.6,15.5c4.3,4.5,9.2,7.8,14.8,10
	c5.6,2.2,11.8,3.4,18.8,3.4c6.4,0,12.4-0.8,17.9-2.3c5.6-1.6,10.7-3.8,15.5-6.8V833.9z M11.7,721.9V766h18.8c1.7,0,3.4-0.1,5-0.4
	c1.6-0.2,3.1-0.6,4.5-1.2c1.6-0.5,3-1.1,4.2-1.9c1.3-0.8,2.5-1.7,3.5-2.7c1.1-1,2-2.1,2.8-3.3c0.8-1.2,1.6-2.6,2.2-4
	c0.6-1.5,1-3,1.3-4.6c0.3-1.7,0.4-3.3,0.4-5.1c0-3.3-0.5-6.2-1.6-8.8c-1-2.5-2.6-4.7-4.6-6.6c-2-1.8-4.5-3.2-7.4-4.1
	c-2.9-0.9-6.3-1.3-10.2-1.3H11.7z M94.4,839.5H68L46.2,803c-1-1.6-1.9-3.2-2.9-4.6c-1-1.5-1.9-2.8-2.9-3.9c-0.9-1.2-1.8-2.2-2.7-3.2
	c-0.9-1-1.9-1.8-2.9-2.6c-1-0.8-2-1.4-3-1.9c-1-0.5-2.1-1-3.2-1.4c-1.2-0.3-2.4-0.5-3.7-0.7c-1.3-0.2-2.7-0.3-4.1-0.3h-9.1v55.1
	h-22.3V703.6H34c3.2,0,6.3,0.2,9.2,0.6c2.9,0.4,5.8,0.9,8.5,1.6c2.6,0.8,5.1,1.7,7.5,2.9c2.4,1.2,4.5,2.5,6.5,4.1
	c2,1.6,3.8,3.3,5.4,5.1c1.6,1.9,2.8,4,3.9,6.3c1.2,2.3,2,4.8,2.5,7.5c0.5,2.7,0.8,5.5,0.8,8.6c0,2.3-0.2,4.6-0.5,6.8
	c-0.3,2.2-0.8,4.3-1.5,6.4c-0.8,1.9-1.7,3.8-2.7,5.6c-1,1.8-2.2,3.5-3.6,5c-1.3,1.6-2.7,3-4.3,4.3c-1.6,1.4-3.4,2.6-5.2,3.6
	c-1.8,1.2-3.8,2.1-5.9,3c-2,0.8-4.2,1.6-6.6,2.3v0.4c1.3,0.7,2.4,1.4,3.5,2.2c1.1,0.7,2,1.5,2.9,2.3c1.9,1.7,3.7,3.5,5.2,5.2
	c0.9,0.9,1.7,1.8,2.5,2.8c0.8,1,1.6,2.1,2.4,3.2c0.9,1.1,1.7,2.3,2.7,3.6c0.9,1.3,1.8,2.7,2.8,4.2L94.4,839.5z M-72.2,786.5
	l-19-54.2c-0.3-0.9-0.6-2-0.9-3.5c-0.3-1.5-0.6-3.1-0.9-5.1h-0.4c-0.3,1.7-0.6,3.3-0.9,4.8c-0.3,1.4-0.6,2.7-1,3.8l-18.6,54.2H-72.2
	z M-29.3,839.5h-24.9L-66.4,805h-53.4l-11.8,34.6h-24.7l51.1-135.9h25.2L-29.3,839.5z M-166.7,833.9c-5.1,2.6-10.9,4.6-17.3,6
	c-6.4,1.3-13.4,2-20.9,2c-9.9,0-18.8-1.6-26.7-4.7c-7.9-3.1-14.8-7.8-20.7-14.1c-5.9-6.2-10.4-13.4-13.4-21.5
	c-3-8.2-4.5-17.3-4.5-27.4c0-10.9,1.7-20.7,5-29.4c3.3-8.7,8.3-16.5,15-23.2c6.7-6.7,14.3-11.7,22.7-15.1c8.4-3.4,17.8-5.1,28-5.1
	c6.6,0,12.6,0.5,18.1,1.4c5.4,1,10.4,2.4,14.7,4.2v22.3c-9.1-5.4-19.2-8.2-30.3-8.2c-7.4,0-14.1,1.2-20.1,3.5
	c-6,2.3-11.3,5.9-15.9,10.6c-4.6,4.7-8,10.1-10.2,16.4c-2.2,6.3-3.4,13.4-3.4,21.2c0,7.5,1.1,14.2,3.2,20.2c2.1,6,5.3,11.2,9.6,15.5
	c4.3,4.5,9.2,7.8,14.8,10c5.6,2.2,11.8,3.4,18.8,3.4c6.4,0,12.4-0.8,17.9-2.3c5.6-1.6,10.7-3.8,15.5-6.8V833.9z"/>
<path fill="none" stroke="#000000" stroke-width="0.5669" stroke-miterlimit="22.9256" d="M3806,670.8l0-281.8
	c159.3-0.1,318.8,1.4,478.1-0.9c133.1,84.1,168.3,291.3-8.1,344.9l201.8,315.3l-272.1-0.2L4050,797.2l-0.3,253.3l-110.8-0.3
	 M4050.7,539.6c159.3-12,166.3,20.8,164.1,48.8c-2.4,30.7,3.6,53.8-164.3,43.4L4050.7,539.6z M3806,670.8l-154.6-281.7l-264.3-0.2
	L3053.3,992l271.6-0.3l6.8-0.1l25.5-0.4l160-294.8l172.9,353.9l248.9,0.2l0-0.5 M2794.2,578.8v-0.4l-0.2,0.2L2794.2,578.8z
	 M3504.8,768.5v0.6l0.2-0.4L3504.8,768.5z M3017.2,1012.5L3418,287.4l-403.2,0l67.8-118.9l-288.3,120.1l0,398.8l164-298.4l99.9,0.3
	l-290.7,527v-527l-274.2-0.2v658.5l202.2,0.3l-36.3,63.8l655.7,0l-60.3,110.9l262.4-174.9l-0.1-311.6l-147.4,276.2L3017.2,1012.5z"
	/>
<text transform="matrix(1 0 0 1 -177.0146 1234.6354)" font-family="'ArialMT'" font-size="308.663px">2</text>
<text transform="matrix(1 0 0 1 -5.3467 1234.6354)" font-family="'ArialMT'" font-size="308.663px"> </text>
<text transform="matrix(1 0 0 1 80.4102 1234.6354)" font-family="'ArialMT'" font-size="308.663px">cm </text>
<text transform="matrix(1 0 0 1 3121.5283 1565.0836)" font-family="'ArialMT'" font-size="355.111px">3</text>
<text transform="matrix(1 0 0 1 3319.0283 1565.0836)" font-family="'ArialMT'" font-size="355.111px"> </text>
<text transform="matrix(1 0 0 1 3417.6895 1565.0836)" font-family="'ArialMT'" font-size="355.111px">cm </text>
<text transform="matrix(1 0 0 1 -303.4668 6125.0405)" font-family="'ArialMT'" font-size="355.111px">za</text>
<text transform="matrix(1 0 0 1 71.5894 6125.0405)" font-family="'ArialMT'" font-size="355.111px">d</text>
<text transform="matrix(1 0 0 1 269.0898 6125.0405)" font-family="'ArialMT'" font-size="355.111px">zw</text>
<text transform="matrix(1 0 0 1 703.0947 6125.0405)" font-family="'ArialMT'" font-size="355.111px">o</text>
<text transform="matrix(1 0 0 1 900.5947 6125.0405)" font-family="'ArialMT'" font-size="355.111px">n</text>
<text transform="matrix(1 0 0 1 1098.0957 6125.0405)" font-family="'ArialMT'" font-size="355.111px">i</text>
<text transform="matrix(1 0 0 1 1176.9893 6125.0405)" font-family="'ArialMT'" font-size="355.111px">ę</text>
<text transform="matrix(1 0 0 1 1374.4902 6125.0405)" font-family="'ArialMT'" font-size="355.111px"> </text>
<text transform="matrix(1 0 0 1 1473.1514 6125.0405)" font-family="'ArialMT'" font-size="355.111px">i</text>
<text transform="matrix(1 0 0 1 1552.0449 6125.0405)" font-family="'ArialMT'" font-size="355.111px"> </text>
<text transform="matrix(1 0 0 1 1650.707 6125.0405)" font-family="'ArialMT'" font-size="355.111px">p</text>
<text transform="matrix(1 0 0 1 1848.207 6125.0405)" font-family="'ArialMT'" font-size="355.111px">o</text>
<text transform="matrix(1 0 0 1 2045.708 6125.0405)" font-family="'ArialMT'" font-size="355.111px">w</text>
<text transform="matrix(1 0 0 1 2302.1572 6125.0405)" font-family="'ArialMT'" font-size="355.111px">i</text>
<text transform="matrix(1 0 0 1 2381.0508 6125.0405)" font-family="'ArialMT'" font-size="355.111px">e</text>
<text transform="matrix(1 0 0 1 2578.5518 6125.0405)" font-family="'ArialMT'" font-size="355.111px">m </text>
<text transform="matrix(1 0 0 1 2973.0195 6125.0405)" font-family="'ArialMT'" font-size="355.111px">j</text>
<text transform="matrix(1 0 0 1 3051.9141 6125.0405)" font-family="'ArialMT'" font-size="355.111px">a</text>
<text transform="matrix(1 0 0 1 3249.4141 6125.0405)" font-family="'ArialMT'" font-size="355.111px">ka</text>
<text transform="matrix(1 0 0 1 3624.4707 6125.0405)" font-family="'ArialMT'" font-size="355.111px"> </text>
<text transform="matrix(1 0 0 1 3723.1318 6125.0405)" font-family="'ArialMT'" font-size="355.111px">g</text>
<text transform="matrix(1 0 0 1 3920.6328 6125.0405)" font-family="'ArialMT'" font-size="355.111px">ru</text>
<text transform="matrix(1 0 0 1 4236.3848 6125.0405)" font-family="'ArialMT'" font-size="355.111px">b</text>
<text transform="matrix(1 0 0 1 4433.8857 6125.0405)" font-family="'ArialMT'" font-size="355.111px">o</text>
<text transform="matrix(1 0 0 1 4631.3867 6125.0405)" font-family="'ArialMT'" font-size="355.111px">ść</text>
<text transform="matrix(1 0 0 1 4986.4961 6125.0405)" font-family="'ArialMT'" font-size="355.111px"> </text>
<text transform="matrix(1 0 0 1 5572.4492 7450.6812)" font-family="'ArialMT'" font-size="355.111px">zo</text>
<text transform="matrix(1 0 0 1 5947.5049 7450.6812)" font-family="'ArialMT'" font-size="355.111px">b</text>
<text transform="matrix(1 0 0 1 6145.0059 7450.6812)" font-family="'ArialMT'" font-size="355.111px">a</text>
<text transform="matrix(1 0 0 1 6342.5068 7450.6812)" font-family="'ArialMT'" font-size="355.111px">czy</text>
<text transform="matrix(1 0 0 1 6875.1729 7450.6812)" font-family="'ArialMT'" font-size="355.111px">ć </text>
<text transform="matrix(1 0 0 1 7151.3896 7450.6812)" font-family="'ArialMT'" font-size="355.111px">czy </text>
<text transform="matrix(1 0 0 1 7782.7168 7450.6812)" font-family="'ArialMT'" font-size="355.111px">ma</text>
<text transform="matrix(1 0 0 1 8276.0254 7450.6812)" font-family="'ArialMT'" font-size="355.111px">ma</text>
<text transform="matrix(1 0 0 1 8769.332 7450.6812)" font-family="'ArialMT'" font-size="355.111px">y </text>
<text transform="matrix(1 0 0 1 9045.5508 7450.6812)" font-family="'ArialMT'" font-size="355.111px">b</text>
<text transform="matrix(1 0 0 1 9243.0508 7450.6812)" font-family="'ArialMT'" font-size="355.111px">i</text>
<text transform="matrix(1 0 0 1 9321.9453 7450.6812)" font-family="'ArialMT'" font-size="355.111px">a</text>
<text transform="matrix(1 0 0 1 9519.4453 7450.6812)" font-family="'ArialMT'" font-size="355.111px">ł</text>
<text transform="matrix(1 0 0 1 9598.3398 7450.6812)" font-family="'ArialMT'" font-size="355.111px">y </text>
<text transform="matrix(1 0 0 1 9874.5547 7450.6812)" font-family="'ArialMT'" font-size="355.111px">d</text>
<text transform="matrix(1 0 0 1 10072.0566 7450.6812)" font-family="'ArialMT'" font-size="355.111px">i</text>
<text transform="matrix(1 0 0 1 10150.9492 7450.6812)" font-family="'ArialMT'" font-size="355.111px">b</text>
<text transform="matrix(1 0 0 1 10348.4512 7450.6812)" font-family="'ArialMT'" font-size="355.111px">o</text>
<text transform="matrix(1 0 0 1 10545.9531 7450.6812)" font-family="'ArialMT'" font-size="355.111px">n</text>
<text transform="matrix(1 0 0 1 10743.4531 7450.6812)" font-family="'ArialMT'" font-size="355.111px">d</text>
<text transform="matrix(1 0 0 1 10940.9531 7450.6812)" font-family="'ArialMT'" font-size="355.111px"> </text>
<text transform="matrix(1 0 0 1 5572.4482 7847.3989)" font-family="'ArialMT'" font-size="355.111px">o</text>
<text transform="matrix(1 0 0 1 5769.9492 7847.3989)" font-family="'ArialMT'" font-size="355.111px"> </text>
<text transform="matrix(1 0 0 1 5868.6113 7847.3989)" font-family="'ArialMT'" font-size="355.111px">w</text>
<text transform="matrix(1 0 0 1 6125.0605 7847.3989)" font-family="'ArialMT'" font-size="355.111px">ymi</text>
<text transform="matrix(1 0 0 1 6677.3164 7847.3989)" font-family="'ArialMT'" font-size="355.111px">a</text>
<text transform="matrix(1 0 0 1 6874.8164 7847.3989)" font-family="'ArialMT'" font-size="355.111px">ra</text>
<text transform="matrix(1 0 0 1 7190.5693 7847.3989)" font-family="'ArialMT'" font-size="355.111px">ch</text>
<text transform="matrix(1 0 0 1 7565.625 7847.3989)" font-family="'ArialMT'" font-size="355.111px"> </text>
<text transform="matrix(1 0 0 1 7664.2871 7847.3989)" font-family="'ArialMT'" font-size="355.111px">1</text>
<text transform="matrix(1 0 0 1 7861.7871 7847.3989)" font-family="'ArialMT'" font-size="355.111px">2</text>
<text transform="matrix(1 0 0 1 8059.2881 7847.3989)" font-family="'ArialMT'" font-size="355.111px">0</text>
<text transform="matrix(1 0 0 1 8256.7891 7847.3989)" font-family="'ArialMT'" font-size="355.111px"> </text>
<text transform="matrix(1 0 0 1 8355.4502 7847.3989)" font-family="'ArialMT'" font-size="355.111px">cm </text>
<text transform="matrix(1 0 0 1 8927.4746 7847.3989)" font-family="'ArialMT'" font-size="355.111px">x </text>
<text transform="matrix(1 0 0 1 9203.6914 7847.3989)" font-family="'ArialMT'" font-size="355.111px">1</text>
<text transform="matrix(1 0 0 1 9401.1914 7847.3989)" font-family="'ArialMT'" font-size="355.111px">6</text>
<text transform="matrix(1 0 0 1 9598.6934 7847.3989)" font-family="'ArialMT'" font-size="355.111px">0</text>
<text transform="matrix(1 0 0 1 9796.1953 7847.3989)" font-family="'ArialMT'" font-size="355.111px"> </text>
<text transform="matrix(1 0 0 1 9894.8555 7847.3989)" font-family="'ArialMT'" font-size="355.111px">cm</text>
<path fill="#004D90" d="M8030.5,6063.2c-347.8,172.4-1470.6,45.7-1433.7-1006.4c10.4-297.1-303.2-263.8-303.2,76.5
	c0,921.8,1107.5,1339.5,1736.9,984.3L8030.5,6063.2z"/>
<path fill="#004D90" d="M6456.6,4746.4c71.1,40,182.1-10.8,247.8-113.6c65.7-102.8,61.2-218.5-10-258.5
	c-71.3-40-182.2,10.8-247.8,113.5C6380.9,4590.6,6385.4,4706.4,6456.6,4746.4"/>
<path fill="#004D90" d="M7100.4,4727.1c0-408.7,517.2-612.8,930-427.4v-57c-384.2-278.7-1217.7-169.9-1217.7,498.2
	c0,658.9,1047.1,558,1047.1,896.2c0,310.5-613.1,223.5-820.7,89c-34.8-22-70.4,15.6-36,44.8c431.5,366.6,1147.7,257.8,1147.7-79.3
	C8150.8,5206.5,7100.4,5378,7100.4,4727.1"/>
<path fill="#004D90" d="M8150.8,4357.4v329.1c-40-5.4-68.9-6-88.7-6c-5.3,0-10,0.1-13.9,0.1c-84.6-0.1-151.5,29.1-196.6,80
	c-45.1,51-68.4,123.3-68.4,208.7c-0.1,90.2,30.6,160.2,82.2,207.1c51.6,46.9,123.5,70.6,204.9,70.6c58.8,0,134.1-9,185.6-18.1
	l6.1-1.1v-752.7C8262.1,4435,8182.1,4357.4,8150.8,4357.4 M8150.8,5151.8c-37.3,3.4-59.5,4.4-76.6,4.4
	c-56.2-0.1-98.9-19.3-128.2-52.2c-29.1-33-45-80.4-45-137.6c0-67.5,15.3-115.9,43.3-147.2c27.9-31.2,69.4-46.6,125.1-46.7
	c19.6,0,44.6,1.7,81.4,7.8V5151.8z"/>
<rect x="9530.3" y="4395.5" fill="#004D90" width="111.2" height="851.6"/>
<path fill="#004D90" d="M8314.1,5411.2c-13.2-4.4-27.3-10.3-27.3-27.6c0-21.5,24.3-26.4,42-26.4c11.6,0,23.1,1.7,38.1,5.4v-21.9
	c-10.1-2.8-23.5-5.6-40.8-5.6c-36.6,0-64.1,15.5-64.1,50.2c0,42.9,34.6,47.3,64.6,56.6c13.3,4.1,27.1,9.7,27.1,26.8
	c0,22.9-23.9,30.5-46,30.5c-15,0-32-3.6-45.7-6.9v23.6c9.8,2.3,24.8,5.5,46.1,5.5c60.7,0,71.3-34.2,71.3-56.9
	C8379.5,5424.1,8342.1,5420.3,8314.1,5411.2"/>
<polygon fill="#004D90" points="8406.1,5360.3 8459.9,5360.3 8459.9,5518.2 8486,5518.2 8486,5360.3 8539.8,5360.3 8539.8,5338.2 
	8406.1,5338.2 "/>
<path fill="#004D90" d="M8646.3,5338.2h-34.4l-64.9,180.1h26.3l15.7-45.7h78.1l15.7,45.7h28L8646.3,5338.2z M8596.1,5451.6
	l30.7-90.5h2.8l30.2,90.5H8596.1z"/>
<polygon fill="#004D90" points="8870.2,5486.4 8868.7,5486.4 8786.9,5338.2 8753.5,5338.2 8753.5,5518.2 8776.3,5518.2 
	8774.9,5368.3 8776.1,5368.3 8858.1,5518.2 8891.8,5518.2 8891.8,5338.2 8868.7,5338.2 "/>
<path fill="#004D90" d="M9012.6,5338.2h-61v180h60.5c46.4,0,81.8-23.1,81.8-90C9094,5358.8,9058.3,5338.2,9012.6,5338.2
	 M9004.5,5496.9h-26.8v-137.3h26.3c33.5,0,63.2,7.4,63.2,68.6C9067.2,5489.4,9037.5,5496.9,9004.5,5496.9z"/>
<path fill="#004D90" d="M9220.2,5338.2h-34.4l-64.8,180.1h26.3l15.7-45.7h78.1l15.8,45.7h28L9220.2,5338.2z M9170.1,5451.6
	l30.7-90.5h2.7l30.2,90.5H9170.1z"/>
<path fill="#004D90" d="M9406,5444.3l1-2.3c23.8-7.9,34.9-29.1,34.9-49.9c0-36.3-21.6-54-60.2-54h-57.8v180h25.7v-70.9h29.4l45,70.9
	h31.5L9406,5444.3z M9372.9,5426.2h-23.4v-66.9h27c21.8,0,39.1,5.1,39.1,32.9C9415.7,5419.5,9396.7,5426.2,9372.9,5426.2z"/>
<path fill="#004D90" d="M9560.1,5338.2h-60.9v180h60.4c46.5,0,81.9-23.1,81.9-90C9641.5,5358.8,9605.8,5338.2,9560.1,5338.2
	 M9552,5496.9h-26.7v-137.3h26.2c33.4,0,63.2,7.4,63.2,68.6C9614.6,5489.4,9584.9,5496.9,9552,5496.9z"/>
<path fill="#004D90" d="M9346.7,4715c-42.8-25.7-101.8-30.3-172.5-30.4c-58.5,0-117.9,6.1-180.1,19.2l-5.9,1.3v92.9l8.8-1.6
	c54-10,113.5-20.9,166.5-20.9c70.3-0.2,104.6,7.3,120.3,25c15.4,16.3,18.1,47.2,18.1,98.3c-29.8-0.4-53.5-3-74.6-3
	c-53.2,0.1-120.5,0.1-175.6,21.4c-55.4,21-98.5,66-98.1,150.2c-0.3,72.5,23.9,119,65.6,145.6c41.6,26.6,98.5,33.9,164.7,34h0.4
	c69.5,0,136.4-2.1,222.4-12l6.5-0.8v-368C9413.4,4787.9,9389.7,4740.6,9346.7,4715 M9302.9,5155.6c-44.4,2.8-62.9,4.6-87.2,4.6
	c-38.3,0-76.1-2.4-103-14.9c-26.8-12.6-43.6-32.9-44-74.9c0.3-36.6,13.5-55.8,39.4-68.8c25.9-12.6,65.5-16.9,115.4-16.9h0.9
	c13.2,0,40.7,1.7,78.5,2.8V5155.6z"/>
<path fill="#004D90" d="M7562,5157.3v-685c0-43.2,88.5-114.9,122.8-114.9v839.8L7562,5157.3z"/>
<path fill="#004D90" d="M8859.5,4972.2c-0.1-85.6-17.8-157.4-58.7-208.3c-40.9-50.9-105-79.5-193.8-79.4
	c-66.6-0.1-128.7,19.9-174.1,64.3c-45.5,44.3-73.6,112.4-73.5,206.4c0,90.8,25,163.6,73.5,214.2c48.6,50.6,120,77.8,210.6,77.8h0.2
	c56.2,0,109.2-3.1,170.7-19.3l5.5-1.5v-85.6l-8.7,1.6c-49,9-91,14.8-136.7,14.8c-36.5,0.1-81.8-1.4-119.1-21.9
	c-35.9-19.7-65.8-55.7-75.2-129.8h379.3V4972.2z M8480.5,4919.7c2.2-46.9,14-83.7,34-108.7c21-26.3,51.1-40.6,92.4-40.7
	c49.1,0.2,79.6,16.3,99.3,43.3c18.7,25.8,27.4,62.6,29.1,106.1H8480.5z"/>
<rect x="5759.5" y="3453.7" fill="none" stroke="#000000" stroke-width="0.5669" stroke-miterlimit="22.9256" width="4535.4" height="3401.6"/>
<path fill="none" stroke="#000000" stroke-width="0.5669" stroke-miterlimit="22.9256" d="M716.2,4778.2
	c121.8-368.6,1001-1078.3,1723.5-312.7c204,216.2,400.8-30.4,158.7-269.5c-655.8-647.9-1731.3-153.5-1920.9,543.8L716.2,4778.2z"/>
<path fill="none" stroke="#000000" stroke-width="0.5669" stroke-miterlimit="22.9256" d="M811,4914.5
	c71.1,40,182.1-10.8,247.8-113.6c65.7-102.8,61.2-218.5-10-258.5c-71.3-40-182.2,10.8-247.8,113.5
	C735.3,4758.7,739.8,4874.5,811,4914.5z"/>
<path fill="none" stroke="#000000" stroke-width="0.5669" stroke-miterlimit="22.9256" d="M1797.8,4439.5
	c406.7,41,557.8,576,332,968.2l56.7,5.7c315.8-354.3,291.2-1194.5-373.5-1261.5c-655.6-66.1-660.3,985.8-996.7,951.9
	c-308.9-31.2-160.9-632.4-6.2-825.5c25.4-32.4-8.4-71.6-40.9-40.3c-408,392.6-371.6,1116-36.2,1149.9
	C1215.4,5436.5,1150.2,4374.2,1797.8,4439.5z"/>
<path fill="none" stroke="#000000" stroke-width="0.5669" stroke-miterlimit="22.9256" d="M2759.1,4478.7v329.1
	c-40-5.4-68.9-6-88.7-6c-5.3,0-10,0.1-13.9,0.1c-84.6-0.1-151.5,29.1-196.6,80c-45.1,51-68.4,123.3-68.4,208.7
	c-0.1,90.2,30.6,160.2,82.2,207.1c51.6,46.9,123.5,70.6,204.9,70.6c58.8,0,134.1-9,185.6-18.1l6.1-1.1v-752.7
	C2870.3,4556.2,2790.3,4478.7,2759.1,4478.7z M2759.1,5273.1c-37.3,3.4-59.5,4.4-76.6,4.4c-56.2-0.1-98.9-19.3-128.2-52.2
	c-29.1-33-45-80.4-45-137.6c0-67.5,15.3-115.9,43.3-147.2c27.9-31.2,69.4-46.6,125.1-46.7c19.6,0,44.6,1.7,81.4,7.8V5273.1z"/>
<rect x="3085.8" y="4524.9" fill="none" stroke="#000000" stroke-width="0.5669" stroke-miterlimit="22.9256" width="111.2" height="851.6"/>
<path fill="none" stroke="#000000" stroke-width="0.5669" stroke-miterlimit="22.9256" d="M3301.3,5224.5
	c-13.2-4.4-27.3-10.3-27.3-27.6c0-21.5,24.3-26.4,42-26.4c11.6,0,23.1,1.7,38.1,5.4V5154c-10.1-2.8-23.6-5.6-40.8-5.6
	c-36.6,0-64.1,15.5-64.1,50.2c0,42.9,34.6,47.3,64.6,56.6c13.3,4.1,27.1,9.7,27.1,26.8c0,22.9-23.9,30.5-46,30.5
	c-15,0-32-3.6-45.7-6.9v23.6c9.8,2.3,24.8,5.5,46.1,5.5c60.7,0,71.3-34.2,71.3-56.9C3366.7,5237.4,3329.3,5233.6,3301.3,5224.5z"/>
<polygon fill="none" stroke="#000000" stroke-width="0.5669" stroke-miterlimit="22.9256" points="3393.3,5173.6 3447.1,5173.6 
	3447.1,5331.5 3473.2,5331.5 3473.2,5173.6 3527,5173.6 3527,5151.5 3393.3,5151.5 "/>
<path fill="none" stroke="#000000" stroke-width="0.5669" stroke-miterlimit="22.9256" d="M3633.5,5151.5h-34.4l-64.9,180.1h26.3
	l15.7-45.7h78.1l15.7,45.7h28L3633.5,5151.5z M3583.4,5264.9l30.7-90.5h2.8l30.2,90.5H3583.4z"/>
<polygon fill="none" stroke="#000000" stroke-width="0.5669" stroke-miterlimit="22.9256" points="3387.2,5077.7 3385.7,5077.7 
	3303.9,4929.5 3270.4,4929.5 3270.4,5109.5 3293.3,5109.5 3291.8,4959.6 3293.1,4959.6 3375.1,5109.5 3408.8,5109.5 3408.8,4929.5 
	3385.7,4929.5 "/>
<path fill="none" stroke="#000000" stroke-width="0.5669" stroke-miterlimit="22.9256" d="M3529.6,4929.5h-61v180h60.5
	c46.4,0,81.8-23.1,81.8-90C3610.9,4950.1,3575.3,4929.5,3529.6,4929.5z M3521.5,5088.2h-26.8v-137.3h26.3c33.5,0,63.2,7.4,63.2,68.6
	C3584.1,5080.8,3554.4,5088.2,3521.5,5088.2z"/>
<path fill="none" stroke="#000000" stroke-width="0.5669" stroke-miterlimit="22.9256" d="M3737.2,4929.5h-34.4l-64.8,180.1h26.3
	l15.7-45.7h78.1l15.8,45.7h28L3737.2,4929.5z M3687.1,5042.9l30.7-90.5h2.7l30.2,90.5H3687.1z"/>
<path fill="none" stroke="#000000" stroke-width="0.5669" stroke-miterlimit="22.9256" d="M3356.8,4822.6l1-2.3
	c23.8-7.9,34.9-29.1,34.9-49.9c0-36.3-21.6-54-60.2-54h-57.8v180h25.7v-70.9h29.4l45,70.9h31.5L3356.8,4822.6z M3323.7,4804.5h-23.4
	v-66.9h27c21.8,0,39.1,5.1,39.1,32.9C3366.4,4797.8,3347.4,4804.5,3323.7,4804.5z"/>
<path fill="none" stroke="#000000" stroke-width="0.5669" stroke-miterlimit="22.9256" d="M3510.8,4716.5h-60.9v180h60.4
	c46.5,0,81.9-23.1,81.9-90C3592.2,4737.1,3556.6,4716.5,3510.8,4716.5z M3502.7,4875.2H3476v-137.3h26.2c33.5,0,63.2,7.4,63.2,68.6
	C3565.4,4867.7,3535.7,4875.2,3502.7,4875.2z"/>
<path fill="none" stroke="#000000" stroke-width="0.5669" stroke-miterlimit="22.9256" d="M2078.7,4671.2
	c-42.8-25.7-101.8-30.3-172.5-30.4c-58.5,0-117.9,6.1-180.1,19.2l-5.9,1.3v92.9l8.8-1.6c54-10,113.5-20.9,166.5-20.9
	c70.3-0.2,104.6,7.3,120.3,25c15.4,16.3,18.1,47.2,18.1,98.3c-29.8-0.4-53.5-3-74.6-3c-53.2,0.1-120.5,0.1-175.6,21.4
	c-55.4,21-98.5,66-98.1,150.2c-0.3,72.5,23.9,119,65.6,145.6c41.6,26.6,98.5,33.9,164.7,34h0.4c69.5,0,136.4-2.1,222.4-12l6.5-0.8
	v-368C2145.4,4744.1,2121.7,4696.8,2078.7,4671.2z M2034.9,5111.7c-44.4,2.8-62.9,4.6-87.2,4.6c-38.3,0-76.1-2.4-103-14.9
	c-26.8-12.6-43.6-32.9-44-74.9c0.3-36.6,13.5-55.8,39.4-68.8c25.9-12.6,65.5-16.9,115.4-16.9h0.9c13.2,0,40.7,1.7,78.5,2.8V5111.7z"
	/>
<path fill="none" stroke="#000000" stroke-width="0.5669" stroke-miterlimit="22.9256" d="M2916.1,5310.8v-685
	c0-43.2,88.5-114.9,122.8-114.9v839.8L2916.1,5310.8z"/>
<path fill="none" stroke="#000000" stroke-width="0.5669" stroke-miterlimit="22.9256" d="M1674.9,5115.5
	c-0.1-85.6-17.8-157.4-58.7-208.3c-40.9-50.9-105-79.5-193.8-79.4c-66.6-0.1-128.7,19.9-174.1,64.3
	c-45.5,44.3-73.6,112.4-73.5,206.4c0,90.8,25,163.6,73.5,214.2c48.6,50.6,120,77.8,210.6,77.8h0.2c56.2,0,109.2-3.1,170.7-19.3
	l5.5-1.5V5284l-8.7,1.6c-49,9-91,14.8-136.7,14.8c-36.5,0.1-81.8-1.4-119.1-21.9c-35.9-19.7-65.8-55.7-75.2-129.8h379.3V5115.5z
	 M1296,5063c2.2-46.9,14-83.7,34-108.7c21-26.3,51.1-40.6,92.4-40.7c49.1,0.2,79.6,16.3,99.3,43.3c18.7,25.8,27.4,62.6,29.1,106.1
	H1296z"/>
<rect x="386.9" y="5418.5" fill="none" stroke="#000000" stroke-width="0.5669" stroke-miterlimit="22.9256" width="42" height="42"/>
<path fill="#AFCA05" d="M181.5-2419.8c10-31.7,26.4-57.4,49.2-77.1c33.8-29.1,75-43.7,123.6-43.7c54.1,0,98.4,17.7,132.6,53.2
	c34.4,35.4,51.5,84.3,51.5,146.8c0,2.3,0,4.6-0.1,6.8c-22.9-5.2-45.8-10.5-68.7-15.8c-1.7-42.6-12.7-75.4-32.9-98.2
	c-22.1-25-49.6-37.5-82.4-37.5c-33.2,0-60.9,12.5-82.9,37.4c-10.5,11.9-18.5,26.7-24,44.4L181.5-2419.8z M169.9-2335.1
	c0-11.7,0.5-22.9,1.6-33.7l67.4,16.6c-0.3,5.5-0.4,11.2-0.4,17c0,50.4,11,88.1,33,113.1c22,25.2,49.7,37.7,82.9,37.7
	c33.1,0,60.7-12.6,82.7-37.8c15.7-18.1,25.8-43,30.2-74.8c22.3,5.2,44.6,10.3,66.9,15.3c-3.7,23.7-9.9,43.8-18.6,60.3
	c-15.2,29.1-37.3,51.6-66.2,67.6c-29.1,16.1-60.7,24-95.1,24c-55,0-99.5-17.6-133.5-53C186.9-2217.7,169.9-2268.6,169.9-2335.1z
	 M-160.3-2483.2c11.4-13.6,25-24.8,40.9-33.6c28.7-15.9,60-23.9,93.8-23.9c42.7,0,77.7,10.9,104.8,32.5
	c23.2,18.5,39.3,43.6,48.4,75.3c-24.2-5.6-50.8-11.4-79.3-17c-4.2-6.1-9-11.4-14.3-16c-15.7-13.3-34.6-20-56.9-20
	c-20.7,0-39.1,4.6-55,13.7C-104.7-2476.1-132.3-2479.8-160.3-2483.2z M72.2-2282.5l65.5,8.6c-7.1,45.1-25.4,80.5-55,106.1
	c-29.5,25.5-65.7,38.3-108.7,38.3c-53.7,0-97.1-17.6-129.7-52.7c-32.7-35.1-49.2-85.6-49.2-151.3c0-37.5,5.5-70.8,16.5-100.1
	c23,2.5,45.7,5.3,68,8.4c-10.6,22.8-15.9,52.8-15.9,89.8c0,52.8,10.1,91.3,30.5,115.3c20.2,23.9,46.6,35.9,79.3,35.9
	c26.2,0,47.9-8.1,65.5-24.1C56.4-2224.4,67.5-2249.1,72.2-2282.5z M-581.1-2481.7c1.2-1.4,2.4-2.7,3.6-4.1
	c34.1-36.5,78.2-54.9,132.6-54.9c47.7,0,87.6,14.8,119.4,44.3C-413.5-2499.5-501.3-2496-581.1-2481.7z M-337.1-2265l68.9,8.5
	c-10.9,40.3-31,71.6-60.3,93.8c-29.5,22.1-67,33.2-112.6,33.2c-57.5,0-103.2-17.7-136.8-53.1c-33.8-35.4-50.6-85.1-50.6-149
	c0-34,4.5-64.1,13.5-90.2c25-6.1,51.3-10.9,78.5-14.5c-11.3,17.6-17.8,38.7-19.4,63.5h219.6c-2.8-31.6-10.7-55.7-23.4-72.1
	c24.4,0.5,49,1.5,73.5,3c13.5,29.5,20.3,64.9,20.3,106.2c0,4-0.1,10-0.4,17.8h-293.3c2.4,43.2,14.7,76.4,36.7,99.2
	c22,23,49.3,34.5,82.2,34.5c24.4,0,45.3-6.5,62.6-19.3C-360.9-2216.3-347.2-2236.8-337.1-2265z"/>
<path fill="#FCE435" d="M2331.4-2434.5c11.4,28,17,60.9,17,98.7c0,4-0.1,10-0.4,17.8h-278.5c36.2-14.2,72.7-29.5,109.5-45.8
	c6.8-3,13.6-6,20.4-9.1h78.5c-1.1-12.3-3-23.5-5.6-33.6C2292.2-2415.7,2311.8-2425,2331.4-2434.5 M1986-2342.1
	c1.7-61.2,18.7-109.1,50.9-143.7c34.1-36.5,78.2-54.9,132.6-54.9c52.6,0,95.6,18,128.8,53.7c2.3,2.4,4.4,4.9,6.5,7.5
	c-18.9,9.1-37.7,18.1-56.7,27c-20.6-22.1-46.6-33.3-77.9-33.3c-30.6,0-56.4,10.2-77.2,30.7c-20.9,20.5-32.4,47.9-34.6,82.2h8.5
	C2039.9-2362,2013-2351.7,1986-2342.1z M2277.3-2265l68.9,8.5c-10.9,40.3-31,71.6-60.3,93.8c-29.5,22.1-67,33.2-112.6,33.2
	c-57.5,0-103.2-17.7-136.8-53.1c-25.6-26.9-41.5-62-47.6-105.3c22.1-7.8,44.2-15.9,66.3-24.4c3.1,40.5,15.3,71.7,36.3,93.6
	c22,23,49.3,34.5,82.2,34.5c24.4,0,45.3-6.5,62.6-19.3C2253.5-2216.3,2267.2-2236.8,2277.3-2265z M1905.9-2260.7v122.3h-66.7v-103.3
	C1861.4-2247.6,1883.7-2253.9,1905.9-2260.7z M1586.3-2245.5v-286.1h59.9v55.9c29-43.2,70.7-64.9,125.2-64.9
	c23.8,0,45.5,4.3,65.4,12.8c20,8.6,34.8,19.7,44.6,33.6c10,13.8,16.8,30.2,20.9,49.2c2.4,12.4,3.7,34,3.7,64.9v65.1
	c-22.2,7-44.4,13.5-66.7,19.6v-82.2c0-27.1-2.5-47.4-7.7-60.9c-5.2-13.4-14.4-24.1-27.6-32.1c-13.3-8.1-28.7-12.1-46.5-12.1
	c-28.4,0-52.8,9.1-73.6,27.1c-20.6,18.1-30.8,52.2-30.8,102.7v98.2C1630.9-2251.4,1608.7-2248.3,1586.3-2245.5z M1586.3-2138.4
	v-54.8c22.4-2.6,44.6-5.7,66.6-9.1v63.9H1586.3z M1418-2233.3v-298.4h66.7v295.4C1462.8-2234.9,1440.6-2233.9,1418-2233.3z
	 M1418-2138.4v-42.9c22.5-0.6,44.8-1.6,66.7-2.9v45.8H1418z M1418-2604.6v-76.7h66.7v76.7H1418z M1316.3-2180.4v42.1h-66.7v-43.5
	C1271.7-2181.1,1294-2180.6,1316.3-2180.4z M995.9-2252.8v-428.5h66.6v194.8c31.1-36,70.4-54.1,117.8-54.1
	c29.1,0,54.4,5.8,75.9,17.3c21.5,11.4,36.9,27.3,46.1,47.5c9.2,20.2,13.9,49.7,13.9,88.1v155.3c-22.3-0.2-44.5-0.7-66.7-1.4v-153.8
	c0-33.2-7.2-57.5-21.6-72.7c-14.4-15.2-34.9-22.9-61.3-22.9c-19.7,0-38.3,5.2-55.8,15.4c-17.4,10.2-29.8,24.1-37.2,41.7
	c-7.5,17.4-11.1,41.7-11.1,72.6v107.7C1040.3-2247.9,1018.1-2250.3,995.9-2252.8z M995.9-2138.4v-62.2c22.2,2.5,44.4,4.8,66.6,6.9
	v55.3H995.9z M837.5-2274.8c-2.6-2.8-5.6-5.3-9.1-7.6c-9.1-5.9-31.9-13.4-68.1-22.5c-48.8-12.4-82.8-23-101.6-32.1
	c-18.8-9-33.2-21.5-43-37.4c-9.7-15.9-14.7-33.5-14.7-52.7c0-17.6,4-33.8,12.1-48.7c8-15,19-27.4,32.7-37.3
	c10.4-7.6,24.5-14.2,42.3-19.5c18-5.3,37.2-8,57.6-8c30.8,0,57.9,4.6,81.3,13.4c23.4,8.8,40.6,20.9,51.7,36
	c11.1,15.3,18.7,35.5,22.9,60.9l-65.1,9c-3-20.2-11.6-36-25.8-47.4c-14.2-11.4-34.3-17.1-60.2-17.1c-30.6,0-52.5,5.1-65.5,15.2
	c-13.1,10.1-19.7,22-19.7,35.5c0,8.7,2.8,16.4,8.2,23.4c5.4,7.2,13.9,13,25.5,17.8c6.7,2.4,26.3,8.1,58.9,16.9
	c47.1,12.6,80,22.9,98.6,31c18.7,8,33.4,19.7,44,35c9.2,13.2,14.4,29.2,15.6,48C890.1-2266.6,863.8-2270.6,837.5-2274.8z
	 M590-2255.8l36.2-5.7c10.6,2.2,21.1,4.4,31.7,6.5c4.8,21,14.5,37.5,29,49.6c16.8,14,40.5,21.1,70.9,21.1c30.6,0,53.3-6.3,68.1-18.7
	c6.8-5.7,12-12,15.7-18.6c22.2,3.5,44.4,6.8,66.5,9.9c-2.9,7-6.6,13.9-11,20.6c-13,19.6-31.7,34.8-56.1,45.5
	c-24.4,10.7-52.1,16.1-82.9,16.1c-51.2,0-90.1-10.6-116.9-31.9C614.4-2182.6,597.3-2214.1,590-2255.8z"/>
<path fill-rule="evenodd" clip-rule="evenodd" fill="#AFCA05" d="M-192.8-2555.7c45.2-130.6-37-225-270.6-285.5
	C-435.5-2609.3-337.2-2513.5-192.8-2555.7"/>
<path fill-rule="evenodd" clip-rule="evenodd" fill="#AFCA05" d="M-671-2429.8c-91-104-213.8-79.5-382.1,93.5
	C-837.9-2245.7-705.9-2283.6-671-2429.8"/>
<line fill="none" stroke="#000000" stroke-width="0.5669" stroke-miterlimit="22.9256" x1="7374.1" y1="-3585.5" x2="5619.1" y2="-3585.5"/>
<polyline fill="none" stroke="#000000" stroke-width="0.5669" stroke-miterlimit="22.9256" points="5399.4,-3585.5 4719,-3585.5 
	4719,-2901.5 7374.1,-2901.5 "/>
<path fill="none" stroke="#000000" stroke-width="0.5669" stroke-miterlimit="22.9256" d="M5167.3-3295.4
	c-91-104-213.8-79.5-382.1,93.5C5000.4-3111.4,5132.4-3149.2,5167.3-3295.4z"/>
<path fill="none" stroke="#000000" stroke-width="0.5669" stroke-miterlimit="22.9256" d="M5619.1-3585.5
	c40.3,46.5,48.2,101.1,26.4,164.2c-115.9,33.9-202.1-21.2-246.1-164.2"/>
<path fill="none" stroke="#000000" stroke-width="0.5669" stroke-miterlimit="22.9256" d="M7256.4-3098.9v-298.4h66.7v295.4
	C7301.1-3100.5,7278.9-3099.5,7256.4-3098.9z"/>
<path fill="none" stroke="#000000" stroke-width="0.5669" stroke-miterlimit="22.9256" d="M7256.4-3004v-42.9
	c22.5-0.6,44.8-1.6,66.7-2.9v45.8H7256.4z"/>
<rect x="7256.4" y="-3546.9" fill="none" stroke="#000000" stroke-width="0.5669" stroke-miterlimit="22.9256" width="66.7" height="76.7"/>
<path fill="none" stroke="#000000" stroke-width="0.5669" stroke-miterlimit="22.9256" d="M7154.6-3046v42.1h-66.7v-43.5
	C7110.1-3046.7,7132.3-3046.2,7154.6-3046z"/>
<path fill="none" stroke="#000000" stroke-width="0.5669" stroke-miterlimit="22.9256" d="M6834.3-3118.4v-428.5h66.6v194.8
	c31.1-36,70.4-54.1,117.8-54.1c29.1,0,54.4,5.8,75.9,17.3c21.5,11.4,36.9,27.3,46.1,47.5c9.2,20.2,13.9,49.7,13.9,88.1v155.3
	c-22.3-0.2-44.5-0.7-66.7-1.4v-153.8c0-33.2-7.2-57.5-21.6-72.7c-14.4-15.2-34.9-22.9-61.3-22.9c-19.7,0-38.3,5.2-55.8,15.4
	c-17.4,10.2-29.8,24.1-37.2,41.7c-7.5,17.4-11.1,41.7-11.1,72.6v107.7C6878.7-3113.5,6856.5-3115.9,6834.3-3118.4z"/>
<path fill="none" stroke="#000000" stroke-width="0.5669" stroke-miterlimit="22.9256" d="M6834.3-3004v-62.2
	c22.2,2.5,44.4,4.8,66.6,6.9v55.3H6834.3z"/>
<path fill="none" stroke="#000000" stroke-width="0.5669" stroke-miterlimit="22.9256" d="M6675.9-3140.4c-2.6-2.8-5.6-5.3-9.1-7.6
	c-9.1-5.9-31.9-13.4-68.1-22.5c-48.8-12.4-82.8-23-101.6-32.1c-18.8-9-33.2-21.5-43-37.4c-9.7-15.9-14.7-33.5-14.7-52.7
	c0-17.6,4-33.8,12.1-48.7c8-15,19-27.4,32.7-37.3c10.4-7.6,24.5-14.2,42.3-19.5c18-5.3,37.2-8,57.6-8c30.8,0,57.9,4.6,81.3,13.4
	c23.4,8.8,40.6,20.9,51.7,36c11.1,15.3,18.7,35.5,22.9,60.9l-65.1,9c-3-20.2-11.6-36-25.8-47.4c-14.2-11.4-34.3-17.1-60.2-17.1
	c-30.6,0-52.5,5.1-65.5,15.2c-13.1,10.1-19.7,22-19.7,35.5c0,8.7,2.8,16.4,8.2,23.4c5.4,7.2,13.9,13,25.5,17.8
	c6.7,2.4,26.3,8.1,58.9,16.9c47.1,12.6,80,22.9,98.6,31c18.7,8,33.4,19.7,44,35c9.2,13.2,14.4,29.2,15.6,48
	C6728.4-3132.2,6702.2-3136.2,6675.9-3140.4z"/>
<path fill="none" stroke="#000000" stroke-width="0.5669" stroke-miterlimit="22.9256" d="M6428.4-3121.4l36.2-5.7
	c10.6,2.2,21.1,4.4,31.7,6.5c4.8,21,14.5,37.5,29,49.6c16.8,14,40.5,21.1,70.9,21.1c30.6,0,53.3-6.3,68.1-18.7
	c6.8-5.7,12-12,15.7-18.6c22.2,3.5,44.4,6.8,66.5,9.9c-2.9,7-6.6,13.9-11,20.6c-13,19.6-31.7,34.8-56.1,45.5
	c-24.4,10.7-52.1,16.1-82.9,16.1c-51.2,0-90.1-10.6-116.9-31.9C6452.7-3048.2,6435.7-3079.7,6428.4-3121.4z"/>
<path fill="none" stroke="#000000" stroke-width="0.5669" stroke-miterlimit="22.9256" d="M6019.9-3285.4
	c10-31.7,26.4-57.4,49.2-77.1c33.8-29.1,75-43.7,123.6-43.7c54.1,0,98.4,17.7,132.6,53.2c34.4,35.4,51.5,84.3,51.5,146.8
	c0,2.3,0,4.6-0.1,6.8c-22.9-5.2-45.8-10.5-68.7-15.8c-1.7-42.6-12.7-75.4-32.9-98.2c-22.1-25-49.6-37.5-82.4-37.5
	c-33.2,0-60.9,12.5-82.9,37.4c-10.5,11.9-18.5,26.7-24,44.4L6019.9-3285.4z"/>
<path fill="none" stroke="#000000" stroke-width="0.5669" stroke-miterlimit="22.9256" d="M6008.3-3200.7c0-11.7,0.5-22.9,1.6-33.7
	l67.4,16.6c-0.3,5.5-0.4,11.2-0.4,17c0,50.4,11,88.1,33,113.1c22,25.2,49.7,37.7,82.9,37.7c33.1,0,60.7-12.6,82.7-37.8
	c15.7-18.1,25.8-43,30.2-74.8c22.3,5.2,44.6,10.3,66.9,15.3c-3.7,23.7-9.9,43.8-18.6,60.3c-15.2,29.1-37.3,51.6-66.2,67.6
	c-29.1,16.1-60.7,24-95.1,24c-55,0-99.5-17.6-133.5-53C6025.2-3083.4,6008.3-3134.2,6008.3-3200.7z"/>
<path fill="none" stroke="#000000" stroke-width="0.5669" stroke-miterlimit="22.9256" d="M5678-3348.8c11.4-13.6,25-24.8,40.9-33.6
	c28.7-15.9,60-23.9,93.8-23.9c42.7,0,77.7,10.9,104.8,32.5c23.2,18.5,39.3,43.6,48.4,75.3c-24.2-5.6-50.8-11.4-79.3-17
	c-4.2-6.1-9-11.4-14.3-16c-15.7-13.3-34.6-20-56.9-20c-20.7,0-39.1,4.6-55,13.7C5733.6-3341.7,5706.1-3345.4,5678-3348.8z"/>
<path fill="none" stroke="#000000" stroke-width="0.5669" stroke-miterlimit="22.9256" d="M5910.5-3148.1l65.5,8.6
	c-7.1,45.1-25.4,80.5-55,106.1c-29.5,25.5-65.7,38.3-108.7,38.3c-53.7,0-97.1-17.6-129.7-52.7c-32.7-35.1-49.2-85.6-49.2-151.3
	c0-37.5,5.5-70.8,16.5-100.1c23,2.5,45.7,5.3,68,8.4c-10.6,22.8-15.9,52.8-15.9,89.8c0,52.8,10.1,91.3,30.5,115.3
	c20.2,23.9,46.6,35.9,79.3,35.9c26.2,0,47.9-8.1,65.5-24.1C5894.7-3090.1,5905.9-3114.7,5910.5-3148.1z"/>
<path fill="none" stroke="#000000" stroke-width="0.5669" stroke-miterlimit="22.9256" d="M5257.2-3347.3c1.2-1.4,2.4-2.7,3.6-4.1
	c34.1-36.5,78.2-54.9,132.6-54.9c47.7,0,87.6,14.8,119.4,44.3C5424.8-3365.1,5337-3361.6,5257.2-3347.3z"/>
<path fill="none" stroke="#000000" stroke-width="0.5669" stroke-miterlimit="22.9256" d="M5501.2-3130.6l68.9,8.5
	c-10.9,40.3-31,71.6-60.3,93.8c-29.5,22.1-67,33.2-112.6,33.2c-57.5,0-103.2-17.7-136.8-53.1c-33.8-35.4-50.6-85.1-50.6-149
	c0-34,4.5-64.1,13.5-90.2c25-6.1,51.3-10.9,78.5-14.5c-11.3,17.6-17.8,38.7-19.4,63.5H5502c-2.8-31.6-10.7-55.7-23.4-72.1
	c24.4,0.5,49,1.5,73.5,3c13.5,29.5,20.3,64.9,20.3,106.2c0,4-0.1,10-0.4,17.8h-293.3c2.4,43.2,14.7,76.4,36.7,99.2
	c22,23,49.3,34.5,82.2,34.5c24.4,0,45.3-6.5,62.6-19.3C5477.4-3082,5491.1-3102.4,5501.2-3130.6z"/>
<polyline fill="none" stroke="#000000" stroke-width="0.5669" stroke-miterlimit="22.9256" points="6491.3,-2198.5 7370.2,-2198.5 
	7370.2,-2882.5 6491.3,-2882.5 "/>
<path fill="none" stroke="#000000" stroke-width="0.5669" stroke-miterlimit="22.9256" d="M7287-2597.1c11.4,28,17,60.9,17,98.7
	c0,4-0.1,10-0.4,17.8h-278.5c36.2-14.2,72.7-29.5,109.5-45.8c6.8-3,13.6-6,20.4-9.1h78.5c-1.1-12.3-3-23.5-5.6-33.6
	C7247.7-2578.3,7267.4-2587.7,7287-2597.1z"/>
<path fill="none" stroke="#000000" stroke-width="0.5669" stroke-miterlimit="22.9256" d="M6941.6-2504.7
	c1.7-61.2,18.7-109.1,50.9-143.7c34.1-36.5,78.2-54.9,132.6-54.9c52.6,0,95.6,18,128.8,53.7c2.3,2.4,4.4,4.9,6.5,7.5
	c-18.9,9.1-37.7,18.1-56.7,27c-20.6-22.1-46.6-33.3-77.9-33.3c-30.6,0-56.4,10.2-77.2,30.7c-20.9,20.5-32.4,47.9-34.6,82.2h8.5
	C6995.5-2524.6,6968.5-2514.4,6941.6-2504.7z"/>
<path fill="none" stroke="#000000" stroke-width="0.5669" stroke-miterlimit="22.9256" d="M7232.8-2427.6l68.9,8.5
	c-10.9,40.3-31,71.6-60.3,93.8c-29.5,22.1-67,33.2-112.6,33.2c-57.5,0-103.2-17.7-136.8-53.1c-25.6-26.9-41.5-62-47.6-105.3
	c22.1-7.8,44.2-15.9,66.3-24.4c3.1,40.5,15.3,71.7,36.3,93.6c22,23,49.3,34.5,82.2,34.5c24.4,0,45.3-6.5,62.6-19.3
	C7209.1-2379,7222.7-2399.5,7232.8-2427.6z"/>
<path fill="none" stroke="#000000" stroke-width="0.5669" stroke-miterlimit="22.9256" d="M6861.4-2423.3v122.3h-66.8v-103.3
	C6817-2410.2,6839.2-2416.5,6861.4-2423.3z"/>
<path fill="none" stroke="#000000" stroke-width="0.5669" stroke-miterlimit="22.9256" d="M6541.8-2408.2v-286.1h59.9v55.9
	c29-43.2,70.7-64.9,125.2-64.9c23.8,0,45.5,4.3,65.4,12.8c20,8.6,34.8,19.7,44.6,33.6c10,13.8,16.8,30.2,20.9,49.2
	c2.4,12.4,3.7,34,3.7,64.9v65.1c-22.2,7-44.4,13.5-66.8,19.6v-82.2c0-27.1-2.5-47.4-7.7-60.9c-5.2-13.4-14.4-24.1-27.6-32.1
	c-13.3-8.1-28.7-12.1-46.5-12.1c-28.4,0-52.8,9.1-73.6,27.1c-20.6,18.1-30.8,52.2-30.8,102.7v98.2
	C6586.5-2414,6564.3-2410.9,6541.8-2408.2z"/>
<path fill="none" stroke="#000000" stroke-width="0.5669" stroke-miterlimit="22.9256" d="M6541.8-2301v-54.8
	c22.4-2.6,44.6-5.7,66.6-9.1v63.9H6541.8z"/>
<rect x="-1113.7" y="-2719.9" fill="none" stroke="#000000" stroke-width="0.5669" stroke-miterlimit="22.9256" width="3534" height="684"/>
<line fill="none" stroke="#000000" stroke-width="0.5669" stroke-miterlimit="22.9256" x1="6491.3" y1="-2882.5" x2="6491.3" y2="-2198.5"/>
<line fill="none" stroke="#000000" stroke-width="0.5669" stroke-miterlimit="22.9256" x1="7374.1" y1="-3585.5" x2="7374.1" y2="-2901.5"/>
<path fill="none" stroke="#000000" stroke-width="0.5669" stroke-miterlimit="22.9256" d="M6245.5-2832v44.1h18.8
	c1.7,0,3.4-0.1,5-0.4c1.6-0.2,3.1-0.6,4.5-1.2c1.6-0.5,3-1.1,4.2-1.9c1.3-0.8,2.5-1.7,3.5-2.7c1.1-1,2-2.1,2.8-3.3
	c0.8-1.2,1.6-2.6,2.2-4c0.6-1.5,1-3,1.3-4.6c0.3-1.7,0.4-3.3,0.4-5.1c0-3.3-0.5-6.2-1.6-8.8c-1-2.5-2.6-4.7-4.6-6.6
	c-2-1.8-4.5-3.2-7.4-4.1c-2.9-0.9-6.3-1.3-10.2-1.3H6245.5z M5820.3-2832v44.1h18.8c1.7,0,3.4-0.1,5-0.4c1.6-0.2,3.1-0.6,4.5-1.2
	c1.6-0.5,3-1.1,4.2-1.9c1.3-0.8,2.5-1.7,3.5-2.7c1.1-1,2-2.1,2.8-3.3c0.8-1.2,1.6-2.6,2.2-4c0.6-1.5,1-3,1.3-4.6
	c0.3-1.7,0.4-3.3,0.4-5.1c0-3.3-0.5-6.2-1.6-8.8c-1-2.5-2.6-4.7-4.6-6.6c-2-1.8-4.5-3.2-7.4-4.1c-2.9-0.9-6.3-1.3-10.2-1.3H5820.3z
	 M5731.3-2782.1h-31.5l13.6-39.4c0.4-1.1,0.7-2.3,1-3.8c0.3-1.5,0.6-3,0.9-4.8h0.4c0.3,1.9,0.6,3.6,0.9,5.1c0.3,1.4,0.6,2.6,0.9,3.5
	L5731.3-2782.1z M6156.4-2782.1H6125l13.6-39.4c0.4-1.1,0.7-2.3,1-3.8c0.3-1.5,0.6-3,0.9-4.8h0.4c0.3,1.9,0.6,3.6,0.9,5.1
	c0.3,1.4,0.6,2.6,0.9,3.5L6156.4-2782.1z M5513.7-2878.1h931.5v96h-31.9v-10.5h-46.6v-38.6h50.7v-19h-73.2v68.1h-49
	c1.6-1,3.1-2,4.5-3.2c1.6-1.3,3-2.8,4.3-4.3c1.4-1.6,2.5-3.2,3.6-5c1-1.8,1.9-3.7,2.7-5.6c0.7-2,1.2-4.2,1.5-6.4
	c0.3-2.2,0.5-4.5,0.5-6.8c0-3.1-0.3-6-0.8-8.6c-0.5-2.7-1.4-5.1-2.5-7.5c-1.1-2.3-2.4-4.4-3.9-6.3c-1.6-1.9-3.4-3.6-5.4-5.1
	c-1.9-1.6-4.1-2.9-6.5-4.1s-4.9-2.1-7.5-2.9c-2.7-0.7-5.5-1.2-8.5-1.6c-2.9-0.4-6-0.6-9.2-0.6h-44.7v68.1h-43.9l-25.4-68.1h-25.2
	l-25.6,68.1h-115.7c0.1-7.4,1.2-14.1,3.4-20c2.3-6.3,5.7-11.8,10.2-16.4c4.6-4.8,9.8-8.3,15.9-10.6c6-2.4,12.7-3.5,20.1-3.5
	c11.1,0,21.2,2.7,30.3,8.2v-22.3c-4.4-1.8-9.3-3.2-14.7-4.2c-5.5-0.9-11.5-1.4-18.1-1.4c-10.2,0-19.5,1.7-28,5.1
	c-8.4,3.4-16,8.4-22.7,15.1c-6.7,6.7-11.7,14.4-15,23.2c-3.1,8.1-4.7,17.2-5,27.1h-93.7c1.6-1,3.1-2,4.5-3.2c1.6-1.3,3-2.8,4.3-4.3
	c1.4-1.6,2.5-3.2,3.6-5c1-1.8,1.9-3.7,2.7-5.6c0.7-2,1.2-4.2,1.5-6.4c0.3-2.2,0.5-4.5,0.5-6.8c0-3.1-0.3-6-0.8-8.6
	c-0.5-2.7-1.4-5.1-2.5-7.5c-1.1-2.3-2.4-4.4-3.9-6.3c-1.6-1.9-3.4-3.6-5.4-5.1c-1.9-1.6-4.1-2.9-6.5-4.1c-2.4-1.2-4.9-2.1-7.5-2.9
	c-2.7-0.7-5.5-1.2-8.5-1.6c-2.9-0.4-6-0.6-9.2-0.6H5798v68.1h-43.9l-25.4-68.1h-25.2l-25.6,68.1h-115.7c0.1-7.4,1.2-14.1,3.4-20
	c2.3-6.3,5.7-11.8,10.2-16.4c4.6-4.8,9.8-8.3,15.9-10.6c6-2.4,12.7-3.5,20.1-3.5c11.1,0,21.2,2.7,30.3,8.2v-22.3
	c-4.4-1.8-9.3-3.2-14.7-4.2c-5.5-0.9-11.5-1.4-18.1-1.4c-10.2,0-19.5,1.7-28,5.1c-8.4,3.4-16,8.4-22.7,15.1
	c-6.7,6.7-11.7,14.4-15,23.2c-3.1,8.1-4.7,17.2-5,27.1h-24.8V-2878.1z"/>
</svg>
